Intro to Reproducible Data Analysis Using R - Data Wrangling with tidyverse - Answers
…
ChickWeight |> 
  group_by(Diet) |>
  count(Chick)

# A tibble: 50 × 3
# Groups:   Diet [4]
   Diet  Chick     n
   <fct> <ord> <int>
 1 1     18        2
 2 1     16        7
 3 1     15        8
 4 1     13       12
 5 1     9        12
 6 1     20       12
 7 1     10       12
 8 1     8        11
 9 1     17       12
10 1     19       12
# ℹ 40 more rows
…
