Intro to Reproducible Data Analysis Using R - Data Wrangling with tidyverse
…
If we only want to look at the penguin body mass we can use the select() function to pull out only the data we want to see.

penguins |> select(species, island, body_mass_g) #(example, on one line of code)

# A tibble: 344 × 3
   species island    body_mass_g
   <fct>   <fct>           <int>
 1 Adelie  Torgersen        3750
 2 Adelie  Torgersen        3800
 3 Adelie  Torgersen        3250
 4 Adelie  Torgersen          NA
 5 Adelie  Torgersen        3450
 6 Adelie  Torgersen        3650
 7 Adelie  Torgersen        3625
 8 Adelie  Torgersen        4675
 9 Adelie  Torgersen        3475
10 Adelie  Torgersen        4250
# ℹ 334 more rows

filter()

Next, if we want to select only certain rows that meet a specific criteria we use the filter() function to filter out only the data we want. We can combine this with select() too.

penguins |> 
  select(species, island, body_mass_g) |> 
  filter(body_mass_g > 4000)

# A tibble: 172 × 3
   species island    body_mass_g
   <fct>   <fct>           <int>
 1 Adelie  Torgersen        4675
 2 Adelie  Torgersen        4250
 3 Adelie  Torgersen        4400
 4 Adelie  Torgersen        4500
 5 Adelie  Torgersen        4200
 6 Adelie  Dream            4150
 7 Adelie  Dream            4650
 8 Adelie  Dream            4400
 9 Adelie  Dream            4600
10 Adelie  Dream            4150
# ℹ 162 more rows

arrange()

arrange will re-order the data based on a specific column or columns. It we want to quickly see the lightest or heaviest penguins, for example.

# lighest
penguins |> 
  select(species, island, body_mass_g) |> 
  arrange(body_mass_g)

# A tibble: 344 × 3
   species   island    body_mass_g
   <fct>     <fct>           <int>
 1 Chinstrap Dream            2700
 2 Adelie    Biscoe           2850
 3 Adelie    Biscoe           2850
 4 Adelie    Biscoe           2900
 5 Adelie    Dream            2900
 6 Adelie    Torgersen        2900
 7 Chinstrap Dream            2900
 8 Adelie    Biscoe           2925
 9 Adelie    Dream            2975
10 Adelie    Dream            3000
# ℹ 334 more rows

# heaviest using the `desc()` descending function.
penguins |> 
  select(species, island, body_mass_g) |> 
  arrange(desc(body_mass_g))

# A tibble: 344 × 3
   species island body_mass_g
   <fct>   <fct>        <int>
 1 Gentoo  Biscoe        6300
 2 Gentoo  Biscoe        6050
 3 Gentoo  Biscoe        6000
 4 Gentoo  Biscoe        6000
 5 Gentoo  Biscoe        5950
 6 Gentoo  Biscoe        5950
 7 Gentoo  Biscoe        5850
 8 Gentoo  Biscoe        5850
 9 Gentoo  Biscoe        5850
10 Gentoo  Biscoe        5800
# ℹ 334 more rows
…
# A tibble: 1 × 2
  avg_mass    sd
     <dbl> <dbl>
1    4202.  802.

group_by

If we wanted to summarize the data across categorical variables in the data we use the group_by() function that will first group the data and then perform a summary function on each grouping.

# just running group_by() you won't see any difference, but under the hood it is sorting the observations.
penguins |> 
  group_by(island, species)

# A tibble: 344 × 8
# Groups:   island, species [5]
   species island    bill_length_mm bill_depth_mm flipper_length_mm body_mass_g
   <fct>   <fct>              <dbl>         <dbl>             <int>       <int>
 1 Adelie  Torgersen           39.1          18.7               181        3750
 2 Adelie  Torgersen           39.5          17.4               186        3800
 3 Adelie  Torgersen           40.3          18                 195        3250
 4 Adelie  Torgersen           NA            NA                  NA          NA
 5 Adelie  Torgersen           36.7          19.3               193        3450
 6 Adelie  Torgersen           39.3          20.6               190        3650
 7 Adelie  Torgersen           38.9          17.8               181        3625
 8 Adelie  Torgersen           39.2          19.6               195        4675
 9 Adelie  Torgersen           34.1          18.1               193        3475
10 Adelie  Torgersen           42            20.2               190        4250
# ℹ 334 more rows
# ℹ 2 more variables: sex <fct>, year <int>
…
