Intro to Reproducible Data Analysis Using R - Machine Learning using tidymodels
…
── Training information 

Training data contained 239 data points and no incomplete rows.

── Operations 

• Centering and scaling for: bill_length_mm bill_depth_mm, ... | Trained

# the bake steps preforms the prep steps and in this case normalizes all the data.
data_bake <- bake(data_prep, new_data = NULL)
data_bake

# A tibble: 239 × 5
   bill_length_mm bill_depth_mm flipper_length_mm body_mass_g species
            <dbl>         <dbl>             <dbl>       <dbl> <fct>  
 1         -0.808        0.120             -1.10      -0.501  Adelie 
 2         -0.660        0.426             -0.447     -1.21   Adelie 
 3         -0.845        1.75              -0.812     -0.695  Adelie 
 4         -0.918        0.324             -1.47      -0.727  Adelie 
 5         -0.863        1.24              -0.447      0.625  Adelie 
 6         -1.80         0.477             -0.593     -0.920  Adelie 
 7         -0.346        1.55              -0.812      0.0780 Adelie 
 8         -1.12        -0.0333            -1.10      -1.15   Adelie 
 9         -1.12         0.0687            -1.54      -0.630  Adelie 
10         -0.974        2.06              -0.739     -0.501  Adelie 
# ℹ 229 more rows
…
