Intro to Reproducible Data Analysis Using R - Dimension Reduction using tidymodels
…
── Training information 

Training data contained 344 data points and 11 incomplete rows.

── Operations 

• Removing rows with NA values in: bill_length_mm, ... | Trained

• Centering and scaling for: bill_length_mm bill_depth_mm, ... | Trained

• PCA extraction with: bill_length_mm bill_depth_mm, ... | Trained

penguin_prep |> tidy(id = "pca", type = "coef")

# A tibble: 25 × 4
   terms               value component id   
   <chr>               <dbl> <chr>     <chr>
 1 bill_length_mm     0.452  PC1       pca  
 2 bill_depth_mm     -0.398  PC1       pca  
 3 flipper_length_mm  0.576  PC1       pca  
 4 body_mass_g        0.544  PC1       pca  
 5 year               0.0957 PC1       pca  
 6 bill_length_mm    -0.0935 PC2       pca  
 7 bill_depth_mm      0.0164 PC2       pca  
 8 flipper_length_mm  0.0256 PC2       pca  
 9 body_mass_g       -0.111  PC2       pca  
10 year               0.989  PC2       pca  
# ℹ 15 more rows
…
# Bake Data: Extract the data from the PCA

penguin_bake <- bake(penguin_prep, new_data = NULL)

penguin_bake

# A tibble: 342 × 8
   species island    sex       PC1    PC2     PC3     PC4     PC5
   <fct>   <fct>     <fct>   <dbl>  <dbl>   <dbl>   <dbl>   <dbl>
 1 Adelie  Torgersen male   -1.95  -1.12   0.0126  0.241   0.405 
 2 Adelie  Torgersen female -1.42  -1.14   0.489   0.0379  0.280 
 3 Adelie  Torgersen female -1.48  -1.06   0.209  -0.192  -0.643 
 4 Adelie  Torgersen female -1.99  -1.01   0.0549  0.624  -0.591 
 5 Adelie  Torgersen male   -2.02  -1.08  -0.772   0.692  -0.321 
 6 Adelie  Torgersen female -1.87  -1.11   0.411  -0.0192  0.385 
 7 Adelie  Torgersen male   -0.927 -1.22  -0.458   1.34    0.213 
 8 Adelie  Torgersen <NA>   -1.94  -0.983  0.821   0.695  -0.543 
 9 Adelie  Torgersen <NA>   -1.31  -1.21  -0.962   0.737   0.212 
10 Adelie  Torgersen <NA>   -1.84  -1.04   0.844  -0.198  -0.0969
# ℹ 332 more rows
…
• Variables removed: year | Trained

• Removing rows with NA values in: bill_length_mm, ... | Trained

• Centering and scaling for: bill_length_mm bill_depth_mm, ... | Trained

• UMAP embedding for: bill_length_mm bill_depth_mm, ... | Trained

# Bake Data: Extract the data from the UMAP

penguin_bake <- bake(penguin_prep, new_data = NULL)

penguin_bake

# A tibble: 342 × 6
   island    sex    species UMAP1  UMAP2   UMAP3
   <fct>     <fct>  <fct>   <dbl>  <dbl>   <dbl>
 1 Torgersen male   Adelie  -6.27 -0.582  0.339 
 2 Torgersen female Adelie  -7.13 -0.441  0.824 
 3 Torgersen female Adelie  -6.97 -0.581  1.80  
 4 Torgersen female Adelie  -5.27 -0.684  1.12  
 5 Torgersen male   Adelie  -4.33 -1.15   0.482 
 6 Torgersen female Adelie  -6.92 -0.193  0.734 
 7 Torgersen male   Adelie  -4.78 -1.95  -0.323 
 8 Torgersen <NA>   Adelie  -6.21  0.140  1.90  
 9 Torgersen <NA>   Adelie  -4.21 -1.78   0.0578
10 Torgersen <NA>   Adelie  -7.47  0.300  1.52  
# ℹ 332 more rows
…
