Data Wrangling with tidyverse – Intro to Reproducible Data Analysis Using R
…
2. What was the percent increase in passengers each year between Aug and Nov?

# To answer this question we need to find the ratio of Aug and Nov travelers. We need the data in the wide format.

# how can we add the ratio to get the percent increase?

AP_long

# A tibble: 144 × 3
   Year  months count
   <chr> <chr>  <dbl>
 1 1949  Jan      112
 2 1949  Feb      118
 3 1949  Mar      132
 4 1949  Apr      129
 5 1949  May      121
 6 1949  Jun      135
 7 1949  Jul      148
 8 1949  Aug      148
 9 1949  Sep      136
10 1949  Oct      119
# ℹ 134 more rows
…
