Intro to Reproducible Data Analysis Using R - Navigating Data Types in R
…
starwars |> count(homeworld) # NOTE IT INCLUDES missing values (NA)

# A tibble: 49 × 2
   homeworld          n
   <chr>          <int>
 1 Alderaan           3
 2 Aleen Minor        1
 3 Bespin             1
 4 Bestine IV         1
 5 Cato Neimoidia     1
 6 Cerea              1
 7 Champala           1
 8 Chandrila          1
 9 Concord Dawn       1
10 Corellia           2
# ℹ 39 more rows
…
